<svg width="56" height="54" viewBox="0 0 56 54" fill="none" xmlns="http://www.w3.org/2000/svg">
<g clip-path="url(#clip0_46_355)">
<path d="M49 25C48.4 25 48 25.4 48 26V48.9C48 50.6 46.6 52.1 44.8 52.1H11.2C9.5 52 8 50.6 8 48.8V26C8 25.4 7.6 25 7 25C6.4 25 6 25.4 6 26V48.9C6 51.7 8.3 54.1 11.2 54.1H44.8C47.7 54.1 50 51.8 50 48.9V26C50 25.4 49.5 25 49 25Z" fill="#0F335C"/>
<path d="M55.6001 21L30.1001 0.899951C28.9001 -0.200049 27.0001 -0.200049 25.8001 0.899951L0.400068 21C6.80983e-05 21.2999 -0.0999319 22 0.200068 22.4C0.500068 22.7999 1.20007 22.9 1.60007 22.6L27.1001 2.39995L27.2001 2.29995C27.6001 1.89995 28.3001 1.89995 28.8001 2.29995L54.4001 22.6C54.6001 22.7 54.8001 22.7999 55.0001 22.7999C55.3001 22.7999 55.6001 22.6999 55.8001 22.4C56.1001 22 56.1001 21.4 55.6001 21Z" fill="#0F335C"/>
<path d="M30.1002 40.0999C28.9002 40.6999 27.4002 40.6999 26.0002 40.5999C24.6002 40.3999 23.6002 39.7999 22.3002 39.2999C21.7002 39.0999 21.4002 39.1999 21.3002 39.8999C21.2002 40.3999 21.2002 41.0999 21.6002 41.4999C22.4002 42.3999 24.4002 42.6999 25.6002 42.7999L25.2002 46.1999C25.0002 46.8999 27.2002 46.9999 27.3002 46.2999L27.6002 42.8999C31.0002 42.6999 34.5002 40.8999 34.5002 37.0999C34.5002 33.6999 31.9002 32.3999 29.1002 31.3999C27.8002 30.8999 26.3002 30.5999 25.3002 29.4999C24.4002 28.5999 24.2002 26.9999 24.9002 25.8999C26.5002 23.4999 30.4002 24.7999 32.4002 25.6999C32.9002 25.8999 33.1002 25.9999 33.3002 25.4999C33.5002 25.0999 33.4002 24.1999 33.2002 23.8999C32.7002 22.8999 30.7002 22.5999 29.7002 22.4999L30.0002 19.2999C30.0002 18.4999 28.0002 18.4999 27.9002 19.1999L27.6002 22.3999C24.1002 22.5999 21.2002 24.8999 21.8002 28.6999C22.3002 31.9999 25.8002 32.8999 28.5002 33.8999C29.9002 34.3999 31.4002 35.1999 31.6002 36.7999C32.0002 38.1999 31.3002 39.3999 30.1002 40.0999Z" fill="#0F335C"/>
</g>
<defs>
<clipPath id="clip0_46_355">
<rect width="56" height="54" fill="white"/>
</clipPath>
</defs>
</svg>
