<svg width="58" height="59" viewBox="0 0 58 59" fill="none" xmlns="http://www.w3.org/2000/svg">
<g clip-path="url(#clip0_46_365)">
<path d="M58.1857 58.3933L58.1885 58.3815V58.3694C58.1885 57.8573 57.7829 57.5488 57.3802 57.5488H0.708397C0.466597 57.5488 0.263719 57.6229 0.120273 57.7555C-0.0235981 57.8886 -0.1 58.0736 -0.1 58.2793C-0.1 58.7914 0.30567 59.1 0.708397 59.1H57.3802C57.7935 59.1 58.0896 58.7842 58.1857 58.3933Z" fill="#0F335C" stroke="#0F335C" stroke-width="0.2"/>
<path d="M55.9715 49.1375L55.9788 49.1278L55.9836 49.1167C56.1856 48.6462 55.9346 48.2026 55.5646 48.0437L3.49116 25.6819C3.26898 25.5865 3.05333 25.5745 2.86918 25.6398C2.68448 25.7053 2.54126 25.8452 2.4601 26.0342C2.25804 26.5047 2.50905 26.9483 2.8791 27.1072L54.9525 49.469C55.3323 49.632 55.7289 49.4588 55.9715 49.1375Z" fill="#0F335C" stroke="#0F335C" stroke-width="0.2"/>
<path d="M2.47212 49.1375L2.46483 49.1278L2.46005 49.1167C2.25799 48.6462 2.50899 48.2026 2.87904 48.0437L54.9524 25.6819C55.1746 25.5865 55.3903 25.5745 55.5744 25.6398C55.7591 25.7053 55.9023 25.8452 55.9835 26.0342C56.1856 26.5047 55.9346 26.9483 55.5645 27.1072L3.4911 49.469C3.11134 49.632 2.71466 49.4588 2.47212 49.1375Z" fill="#0F335C" stroke="#0F335C" stroke-width="0.2"/>
<path d="M53.7582 58.3933L53.7611 58.3816V58.3695V55.6672C53.7611 54.17 52.5644 53.045 51.1817 53.045H6.90688C5.43563 53.045 4.32749 54.1699 4.32749 55.5771V58.2794C4.32749 58.7915 4.73316 59.1 5.13589 59.1H52.9527C53.366 59.1 53.6621 58.7843 53.7582 58.3933ZM52.1443 55.5771V57.5488H5.76719V55.5771C5.76719 55.0002 6.25532 54.5061 6.81833 54.5061H51.0931C51.6562 54.5061 52.1443 55.0002 52.1443 55.5771Z" fill="#0F335C" stroke="#0F335C" stroke-width="0.2"/>
<path d="M53.7609 19.6432L53.7611 19.6432V19.6366V16.9344C53.7611 16.4223 53.3554 16.1137 52.9527 16.1137H5.13589C4.89409 16.1137 4.69121 16.1878 4.54776 16.3205C4.40389 16.4535 4.32749 16.6386 4.32749 16.8443V19.5466C4.32749 21.0437 5.52412 22.1687 6.90688 22.1687H51.1817C52.5678 22.1687 53.6692 21.0416 53.7609 19.6432ZM5.85573 19.6366V17.6649H52.2328V19.6366C52.2328 20.2136 51.7447 20.7076 51.1817 20.7076H6.90688C6.34387 20.7076 5.85573 20.2136 5.85573 19.6366Z" fill="#0F335C" stroke="#0F335C" stroke-width="0.2"/>
<path d="M28.7332 0.000884939L28.7332 0.000776924L28.7289 0.00322267L0.400939 16.2124C0.241534 16.27 0.116534 16.4028 0.042994 16.5524C-0.0315132 16.704 -0.0603586 16.8873 -0.0077612 17.0518C0.0919475 17.4515 0.394515 17.6648 0.708311 17.6648H57.3801C57.6956 17.6648 57.9902 17.451 58.1782 17.0685L58.1885 17.0476V17.0244C58.1885 16.7318 58.0913 16.4251 57.7904 16.221L57.7906 16.2208L57.7839 16.217L29.4481 0.00322267L29.4481 0.00311749L29.4437 0.000884939C29.3383 -0.0527298 29.2114 -0.0775391 29.0885 -0.0775391C28.9655 -0.0775391 28.8386 -0.0527298 28.7332 0.000884939ZM54.4366 16.1137H3.56432L29.0441 1.55638L54.4366 16.1137Z" fill="#0F335C" stroke="#0F335C" stroke-width="0.2"/>
<path d="M33.3946 9.73198L33.3947 9.73199V9.72821C33.3947 7.24117 31.4021 5.30454 29.0443 5.30454C26.598 5.30454 24.6939 7.24115 24.6939 9.63813C24.6939 12.1252 26.6866 14.0618 29.0443 14.0618C31.4041 14.0618 33.3042 12.1239 33.3946 9.73198ZM26.2222 9.72821C26.2222 8.16044 27.5073 6.85569 29.0443 6.85569C30.4893 6.85569 31.7791 8.15712 31.8665 9.73093C31.865 11.2975 30.5805 12.6007 29.0443 12.6007C27.5073 12.6007 26.2222 11.296 26.2222 9.72821Z" fill="#0F335C" stroke="#0F335C" stroke-width="0.2"/>
<path d="M49.3317 53.7948L49.3336 53.7853V53.7755V21.3481C49.3336 20.836 48.9279 20.5274 48.5252 20.5274H9.56338C9.05586 20.5274 8.75498 20.9426 8.75498 21.3481V53.7755C8.75498 54.2876 9.16065 54.5961 9.56338 54.5961H48.5252C48.9442 54.5961 49.2377 54.2731 49.3317 53.7948ZM47.7168 22.1687V53.045H10.2832V22.1687H47.7168Z" fill="#0F335C" stroke="#0F335C" stroke-width="0.2"/>
<path d="M42.2468 53.8896L42.2497 53.8778V53.8657V39.4535C42.2497 32.0136 36.3622 26.0222 29.0443 26.0222C21.7268 26.0222 15.839 32.0132 15.839 39.3634V53.7756C15.839 54.2877 16.2446 54.5962 16.6474 54.5962H41.4413C41.8546 54.5962 42.1507 54.2805 42.2468 53.8896ZM40.6329 39.4535V53.0451H17.2787V39.4535C17.2787 32.8419 22.548 27.5733 28.9558 27.5733C35.4511 27.5733 40.6329 32.931 40.6329 39.4535Z" fill="#0F335C" stroke="#0F335C" stroke-width="0.2"/>
</g>
<defs>
<clipPath id="clip0_46_365">
<rect width="58" height="59" fill="white"/>
</clipPath>
</defs>
</svg>
