<svg width="56" height="52" viewBox="0 0 56 52" fill="none" xmlns="http://www.w3.org/2000/svg">
<g clip-path="url(#clip0_46_390)">
<path d="M16.8999 13.8C16.2999 13.8 15.8999 14.2 15.8999 14.8V27.4C15.8999 29.2 17.2999 30.7001 19.0999 30.7001H22.4999H33.3999H36.7999C38.5999 30.7001 39.9999 29.2 39.9999 27.4V14.8C39.9999 14.2 39.5999 13.8 38.9999 13.8C38.3999 13.8 37.9999 14.2 37.9999 14.8V27.4C37.9999 28.1 37.4999 28.7 36.7999 28.7H33.3999V20.5C33.3999 19.3 32.4999 18.4 31.2999 18.4H24.5999C23.3999 18.4 22.4999 19.4 22.4999 20.5V28.7H19.0999C18.3999 28.7 17.8999 28.1 17.8999 27.4V14.8C17.8999 14.2 17.3999 13.8 16.8999 13.8ZM24.5999 20.5C24.5999 20.4 24.6999 20.4 24.6999 20.4H31.3999C31.4999 20.4 31.4999 20.5 31.4999 20.5V28.7H24.5999V20.5Z" fill="#0F335C"/>
<path d="M13.7 13.5C13.9 13.5 14.1 13.4 14.3 13.3L27.9 2.1H28.1L41.7 13.3C42.1 13.7 42.8 13.6 43.1 13.2C43.5 12.8 43.4 12.1 43 11.8L29.5 0.6C28.7 -0.2 27.4 -0.2 26.6 0.6L13.1 11.7C12.7 12.1 12.6 12.7 13 13.1C13.1 13.3 13.4 13.5 13.7 13.5Z" fill="#0F335C"/>
<path d="M24.6999 45.4H24.0999V42.5999C24.0999 37.0999 19.7999 32.7 14.4999 32.7C13.9999 32.7 13.4999 32.6 13.0999 32.5L9.9999 31.5C8.9999 31.2 7.9999 31.3999 7.2999 32.0999L6.2999 31.2999C6.0999 31.0999 5.8999 30.8 5.8999 30.5V27.2C5.8999 25.5 4.5999 24.2 2.8999 24.2C1.2999 24.2 -0.100098 25.6 -0.100098 27.2V30.2C-0.100098 32.3 0.499902 34.3 1.6999 36L3.1999 38.2C4.6999 40.3 6.6999 42.1 8.9999 43.2L12.2999 44.7999C12.5999 44.9 12.7999 45.2 12.7999 45.5H11.9999C10.8999 45.5 9.9999 46.4 9.9999 47.5V51C9.9999 51.6 10.3999 52 10.9999 52C11.5999 52 11.9999 51.6 11.9999 51V47.4H12.7999H23.8999H24.4999V51C24.4999 51.6 24.8999 52 25.4999 52C26.0999 52 26.4999 51.6 26.4999 51V47.4C26.6999 46.3 25.7999 45.4 24.6999 45.4ZM13.3999 42.9L10.0999 41.2999C8.0999 40.2999 6.2999 38.8 4.9999 37L3.4999 34.7999C2.4999 33.4 1.9999 31.9 1.9999 30.2V27.2C1.9999 26.6 2.3999 26.2 2.9999 26.2C3.4999 26.2 3.9999 26.7 3.9999 27.2V30.5C3.9999 31.4 4.3999 32.1999 5.0999 32.7999L6.3999 34C6.2999 35.2 6.8999 36.2999 7.9999 36.7999L13.2999 39.2C13.7999 39.4 14.3999 39.2 14.5999 38.7C14.7999 38.2 14.5999 37.6 14.0999 37.4L8.7999 35C8.3999 34.8 8.1999 34.3 8.3999 33.9C8.5999 33.5 8.8999 33.3 9.2999 33.4L12.3999 34.4C13.0999 34.6 13.6999 34.7 14.3999 34.7C18.5999 34.7 21.9999 38.1999 21.9999 42.5999V45.4H14.9999C14.9999 44.4 14.2999 43.4 13.3999 42.9Z" fill="#0F335C"/>
<path d="M52.9998 24.2C51.3998 24.2 49.9998 25.6 49.9998 27.2V30.5C49.9998 30.8 49.8998 31.0999 49.5998 31.2999L48.5998 32.0999C47.9998 31.4999 46.9998 31.2 45.9998 31.5L42.8998 32.5C42.3998 32.6 41.9998 32.7 41.4998 32.7C36.1998 32.7 31.8998 37.0999 31.8998 42.5999V45.4H31.2998C30.1998 45.4 29.2998 46.3 29.2998 47.4V51C29.2998 51.6 29.6998 52 30.2998 52C30.8998 52 31.2998 51.6 31.2998 51V47.4H31.8998H42.9998H43.7998V51C43.7998 51.6 44.1998 52 44.7998 52C45.3998 52 45.7998 51.6 45.7998 51V47.4C45.7998 46.3 44.8998 45.4 43.7998 45.4H42.9998C43.0998 45.1 43.2998 44.8 43.4998 44.7L46.7998 43.0999C49.0998 41.9999 51.0998 40.1999 52.5998 38.0999L54.0998 35.9C55.2998 34.2 55.8998 32.2 55.8998 30.1V27.1C55.9998 25.5 54.6998 24.2 52.9998 24.2ZM53.9998 30.2C53.9998 31.9 53.4998 33.4999 52.4998 34.7999L50.9998 37C49.6998 38.9 47.8998 40.4 45.8998 41.2999L42.5998 42.9C41.5998 43.4 40.9998 44.3 40.8998 45.4H33.7998V42.5999C33.7998 38.1999 37.1998 34.7 41.3998 34.7C42.0998 34.7 42.7998 34.6 43.3998 34.4L46.4998 33.4C46.8998 33.3 47.2998 33.5 47.3998 33.9C47.5998 34.3 47.3998 34.8 46.9998 35L41.6998 37.4C41.1998 37.6 40.9998 38.2 41.1998 38.7C41.3998 39.2 41.9998 39.4 42.4998 39.2L47.7998 36.7999C48.8998 36.2999 49.4998 35.1 49.3998 34L50.7998 32.9C51.4998 32.3 51.8998 31.5 51.8998 30.6V27.2999C51.8998 26.6999 52.2998 26.2999 52.8998 26.2999C53.3998 26.2999 53.8998 26.7999 53.8998 27.2999V30.2H53.9998Z" fill="#0F335C"/>
</g>
<defs>
<clipPath id="clip0_46_390">
<rect width="56" height="52" fill="white"/>
</clipPath>
</defs>
</svg>
